569862 109209 470
749220 872512 525
927799 18229 525
893922 810857 525
890117 307308 525
985790 382785 525
915147 526899 525
338862 470400 449
378972 387678 379
526226 800116 509
460085 261574 449
690805 218075 509
4348 59814 340
422464 49305 449
409092 797062 509
569588 699229 509
986604 828715 525
43901 842386 525
59585 390779 443
635190 732147 504
229417 205318 386
721322 208060 509
283408 93102 443
83807 865969 525
224081 353269 443
758516 396325 509
702515 200507 509
453594 762885 509
194962 13306 383
998631 622095 525
201323 310121 443
694256 787038 504
952404 531038 525
739746 516457 509
350841 948739 525
677414 121135 509
525367 483971 470
470651 446495 444
524979 232048 470
722310 986485 525
622854 285069 470
269064 54897 443
450688 330333 449
367503 562708 470
133085 207636 383
951570 149258 525
453646 757743 509
838985 506058 525
403426 662734 509
471003 124800 449
762463 335373 509
635662 502559 509
51378 331955 443
389669 769083 509
89889 621729 470
229202 219899 368
861761 482094 525
901226 724170 525
253124 787756 509
335417 480037 449
727684 156770 509
830118 445267 509
262155 147100 443
507732 250115 449
288943 285086 389
908541 23527 525
338964 17164 443
618077 618077 111
477627 477627 201
777461 777461 194
59376 59376 242
912130 912130 189
457871 457871 214
933335 933335 127
320557 320557 71
105474 105474 129
665446 665446 155
91290 91290 85
233420 233420 107
679628 679628 36
728834 728834 212
90402 90402 116
93102 93102 85
821668 821668 357
149951 149951 202
905817 905817 96
906824 906824 65
23549 44434 324
793897 412191 509
205033 683382 509
66615 739657 509
737523 750753 424
258386 383195 441
616617 320969 470
630606 499066 509
409129 897646 525
108429 655399 509
752630 485560 509
496948 468230 426
895652 331503 525
490516 620703 470
646729 46874 509
787613 987478 525
404685 681307 509
231928 699000 509
654241 447492 509
36554 933226 525
