..............
----------------------------------------------------------------------
Ran 14 tests in 0.509s

OK
Name             Stmts   Miss Branch BrPart  Cover   Missing
------------------------------------------------------------
Collatz.py          29      0     12      1    98%   33->30
TestCollatz.py      61      0      0      0   100%
------------------------------------------------------------
TOTAL               90      0     12      1    99%
