.....................
----------------------------------------------------------------------
Ran 21 tests in 0.239s

OK
Name             Stmts   Miss Branch BrPart  Cover   Missing
------------------------------------------------------------
Collatz.py          53      0     20      0   100%
TestCollatz.py      90      0      0      0   100%
------------------------------------------------------------
TOTAL              143      0     20      0   100%
