1 10 20
100 200 125
201 210 89
900 1000 174
807 880 179
836 172 171
911 971 174
830 750 153
315 512 144
970 133 179
390 738 171
782 583 171
390 418 134
842 37 171
846 420 171
731 786 153
175 193 120
269 288 105
121 626 144
426 222 144
330 259 144
555 377 142
874 939 174
436 204 144
170 62 122
924 214 179
493 360 142
869 702 171
230 476 144
792 653 171
240 525 144
6 251 128
368 788 171
951 985 143
365 900 179
194 321 131
298 995 179
376 644 142
159 93 122
127 525 144
272 953 179
725 808 153
397 818 171
258 962 179
464 442 129
740 335 171
169 262 128
206 98 125
690 325 145
143 811 171
715 401 171
470 253 144
965 345 179
734 911 179
3891 1701 238
6004 8147 262
887 3952 238
5585 9695 262
4886 5027 210
5374 5885 236
1707 4712 238
6850 8626 257
5399 7322 262
7819 1158 262
6944 2272 262
3231 6245 262
757 2657 209
5375 9937 262
8068 548 262
1841 5050 238
5668 2857 238
4935 1427 238
5901 7803 262
9328 1280 262
2116 7944 262
8567 5261 262
5757 724 238
2416 6559 262
3403 8678 262
1844 4492 238
6330 6842 244
7971 1264 262
341 3012 217
9465 6808 260
8501 7014 252
1313 3278 217
3405 9432 262
2658 8258 262
2983 4885 238
7731 1561 262
1948 8365 262
4607 546 238
6571 6379 213
6669 4908 262
5963 2464 238
3600 9378 262
5000 3368 238
7406 3100 262
4800 1764 238
4635 9433 262
8189 1054 262
3172 1109 217
2692 4551 238
5557 3636 238
903326 14233 525
317902 314288 353
100000 100001 129
937196 493876 525
411857 732 449
838183 604 525
424904 15364 449
508313 9263 449
315678 256062 407
154477 436455 449
144037 95261 375
193277 8975 383
915668 53740 525
209300 484811 449
528062 709555 509
158728 19970 383
273350 717326 509
710585 921414 525
582805 374965 470
908760 832325 525
584091 798840 509
760525 851100 525
300736 486663 449
866572 525682 525
988628 691780 525
