.............
----------------------------------------------------------------------
Ran 13 tests in 0.348s

OK
Name             Stmts   Miss Branch BrPart  Cover   Missing
------------------------------------------------------------
Collatz.py          47      0     16      0   100%
TestCollatz.py      60      0      0      0   100%
------------------------------------------------------------
TOTAL              107      0     16      0   100%
