.............
----------------------------------------------------------------------
Ran 13 tests in 0.004s

OK
Name             Stmts   Miss Branch BrPart  Cover   Missing
------------------------------------------------------------
Collatz.py          56     15     30      2    66%   60->61, 61-63, 74->86, 86-97
TestCollatz.py      60      0      0      0   100%
------------------------------------------------------------
TOTAL              116     15     30      2    80%
