1 10 20
100 200 125
201 210 89
900 1000 174
1 1 1
10 1 20
2 200 125
3 400 144
999998 999999 259
45 300 128
212 1000 179
3 210 125
2 12 20
70 71 103
85 84 10
68 69 15
1 1000 179
1000 1 179
54 2 113
2 54 113
999 1000 112
1000 9999 262
1 5 8
999999 999999 259
1 30 112
1 40 112
2 30 112
2 2 2
2 4 8
2 7 17
9 80 116
9 90 116
9 100 119
9 20000 279
100 99999 351
200 99999 351
300 99999 351
400 99999 351
500 99999 351
600 99999 351
700 99999 351
800 99999 351
1000 99999 351
100 900 179
200 800 171
300 700 145
400 600 142
500 500 111
25 25 24
67 68 28
500 600 137
500 700 145
500 800 171
500 900 179
500 1000 179
500 1500 182
500 2000 182
500 45000 324
5000 99999 351
340 99999 351
10 10 7
20 20 8
30 30 19
40 40 9
50 50 25
60 60 20
70 70 15
80 80 10
90 90 18
100 100 26
1000 3000 217
102 101 26
900 10000 262
75 74 23
75 76 23
77 78 36
78 78 36
79 300 128
80 84 111
81 32 116
90 97 119
3849 847 238
3927 8973 262
789 987 179
458 987 179
234 986 179
567 897 179
123 789 171
678 982 179
143 896 179
1000 7000 262
2000 7000 262
3000 7000 262
4000 7000 262
5000 7000 262
6000 7000 262
7000 7000 32
99 100 26
100 101 26
453 589 142
1 999999 525
